4 Циклы, условия, функции – Компьютерный анализ текста
…
Также узнаем число уникальных значений в каждом столбце и запросим результат в виде таблицы.

map_df(
  titles,
  ~ tibble(
    n_unique = n_distinct(.x),
    nas = sum(is.na(.x)),
    prop_nas = round(nas / nrow(titles),2)
    ),
  .id = "variable"
  ) |> 
  arrange(prop_nas) |> 
  print()

# A tibble: 28 × 4
   variable               n_unique   nas prop_nas
   <chr>                     <int> <int>    <dbl>
 1 Title                       698     0     0   
 2 BL record ID                755     0     0   
 3 Type of resource              4     0     0   
 4 Content type                  8     0     0   
 5 Date of publication          34     3     0   
 6 Publisher                   250    20     0.02
 7 Country of publication       30    28     0.03
 8 Physical description        522    30     0.03
 9 ISBN                        719    47     0.05
10 Material type                16    54     0.06
# ℹ 18 more rows
…
library(tidytext)
count_data <- titles_tidy |> 
  filter(Language == "English") |> 
  select(Title) |> 
  unnest_tokens(output = "word", input = "Title") |> 
  anti_join(stop_words) |> 
  count(word, sort = TRUE) |> 
  filter(!str_detect(word, "[0-9]"),
         !word %in% c("harry", "potter", "book"))

count_data |> 
  print()

# A tibble: 902 × 2
   word              n
   <chr>         <int>
 1 magical          50
 2 magic            48
 3 world            47
 4 guide            43
 5 hogwarts         38
 6 unofficial       38
 7 phoenix          37
 8 secrets          37
 9 stone            35
10 philosopher's    33
# ℹ 892 more rows
…
Error in column_counts(titles, "Date"): Столбец Date не найден в данных!

4.11 Бонус: Интерактивное облако

Интерактивное облако слов можно построить с использованием пакета wordcloud2. Сделаем облако в форме шляпы волшебника!

title_counts <- titles |> 
  column_counts("Title") |> 
  rename(freq = n)

title_counts |> 
  print()

# A tibble: 1,439 × 2
   word           freq
   <chr>         <int>
 1 potter          790
 2 harry           787
 3 book             78
 4 stone            62
 5 philosopher's    56
 6 magical          50
 7 magic            48
 8 secrets          48
 9 world            48
10 phoenix          45
# ℹ 1,429 more rows
…
