5 Импорт: JSON – Компьютерный анализ текста
…
Еще один способ.

tibble(
  episode_id = map_chr(tbbt$episode_list, pluck, "episode_id"),
  title = map_chr(tbbt$episode_list, pluck, "title")
  ) |> 
  print()

# A tibble: 280 × 2
   episode_id title                             
   <chr>      <chr>                             
 1 S01E01     Pilot                             
 2 S01E02     The Big Bran Hypothesis           
 3 S01E03     The Fuzzy Boots Corollary         
 4 S01E04     The Luminous Fish Effect          
 5 S01E05     The Hamburger Postulate           
 6 S01E06     The Middle-Earth Paradigm         
 7 S01E07     The Dumpling Paradox              
 8 S01E08     The Grasshopper Experiment        
 9 S01E09     The Cooper-Hofstadter Polarization
10 S01E10     The Loobenfeld Decay              
# ℹ 270 more rows
…
start_idx <- seq(0, 200, 10)
google_data <- map(start_idx, ~search_google_books("plato", start_index = .x))

Извлекаем данные из списка.

google_tbl <-  map_dfr(1:length(google_data), ~pluck(google_data, .x, 3, "volumeInfo"))

И дальше работаем с ними как обычно: приводим к опрятному виду, обобщаем, строим разведывательные графики.

google_tbl |> 
  as_tibble() |> 
  print()

# A tibble: 210 × 22
   title   authors publisher publishedDate industryIdentifiers readingModes$text
   <chr>   <list>  <chr>     <chr>         <list>              <lgl>            
 1 PLATO   <chr>   Educatio… 1980          <df [2 × 2]>        TRUE             
 2 Plato   <chr>   Sterling… 2009          <df [2 × 2]>        FALSE            
 3 Plato   <chr>   <NA>      1867          <df [1 × 2]>        FALSE            
 4 Plato   <chr>   Atlantic… 1999          <df [2 × 2]>        FALSE            
 5 Plato … <chr>   Univ of … 1985-01-01    <df [2 × 2]>        FALSE            
 6 Plato'… <chr>   Psycholo… 1953          <df [2 × 2]>        TRUE             
 7 The Th… <chr>   Hackett … 1990-01-01    <df [2 × 2]>        FALSE            
 8 Plato … <chr>   SUNY Pre… 1990-01-01    <df [2 × 2]>        FALSE            
 9 Plato'… <chr>   Agora Pu… 2001          <df [2 × 2]>        TRUE             
10 Plato'… <chr>   SUNY Pre… 1984-01-01    <df [2 × 2]>        TRUE             
# ℹ 200 more rows
# ℹ 17 more variables: readingModes$image <lgl>, pageCount <int>,
#   printType <chr>, categories <list>, maturityRating <chr>,
#   allowAnonLogging <lgl>, contentVersion <chr>, panelizationSummary <df[,2]>,
#   imageLinks <df[,2]>, language <chr>, previewLink <chr>, infoLink <chr>,
#   canonicalVolumeLink <chr>, description <chr>, subtitle <chr>,
#   averageRating <int>, ratingsCount <int>
…
