2 Таблицы. Опрятные данные – Компьютерный анализ текста
…
Прежде чем двигаться дальше, приведите в порядок table2, 3, 4a-4b, используя dplyr и tidyr.

2.6 Обобщение данных

Теперь вернемся к датасету curricula и попробуем частично воспроизвести результаты, полученные авторами проекта “Список чтения”, упомянутого выше.

У каких авторов больше всего произведений (во всех программах)?

curricula_tbl |> 
  group_by(author, title) |> 
  summarise(n = n()) |> 
  arrange(-n) |> 
  print()

# A tibble: 1,624 × 3
# Groups:   author [461]
   author          title                        n
   <chr>           <chr>                    <int>
 1 Горький М.      Мать                        51
 2 Некрасов Н.А.   Кому на Руси жить хорошо    50
 3 Пушкин А.С.     Евгений Онегин              49
 4 Островский А.Н. Гроза                       48
 5 Тургенев И.С.   Отцы и дети                 48
 6 Гоголь Н.В.     Мертвые души                47
 7 Грибоедов А.С.  Горе от ума                 47
 8 Лермонтов М.Ю.  Герой нашего времени        46
 9 Толстой Л.Н.    Война и мир                 46
10 Толстой Л.Н.    Воскресение                 46
# ℹ 1,614 more rows

Какие произведения упоминаются в программах чаще всего?

curricula_tbl |> 
  count(author, title) |> 
  arrange(-n) |> 
  print()

# A tibble: 1,624 × 3
   author          title                        n
   <chr>           <chr>                    <int>
 1 Горький М.      Мать                        51
 2 Некрасов Н.А.   Кому на Руси жить хорошо    50
 3 Пушкин А.С.     Евгений Онегин              49
 4 Островский А.Н. Гроза                       48
 5 Тургенев И.С.   Отцы и дети                 48
 6 Гоголь Н.В.     Мертвые души                47
 7 Грибоедов А.С.  Горе от ума                 47
 8 Лермонтов М.Ю.  Герой нашего времени        46
 9 Толстой Л.Н.    Война и мир                 46
10 Толстой Л.Н.    Воскресение                 46
# ℹ 1,614 more rows

На принятые в каких годах программы приходится больше всего произведений? (Объяснение здесь.)

curricula_tbl |> 
  group_by(year) |> 
  distinct(author, title) |> 
  summarise(n = n()) |> 
  arrange(-n) |> 
  print()

# A tibble: 49 × 2
   year      n
   <chr> <int>
 1 1991    518
 2 1940    372
 3 1939    371
 4 1933    288
 5 1982    282
 6 1984    282
 7 1983    281
 8 1985    278
 9 1986    278
10 1987    278
# ℹ 39 more rows
…
Файл с библиографией забираем с сайта, как было показано выше.

bib_tbl <- read_tsv("../files/bibliography.tsv")

Используем уже знакомые функции для объединения данных.

curricula_joined <- curricula_tbl |> 
  select(author, title, year, grade, curriculum) |> 
  left_join(bib_tbl, join_by(curriculum == abbreviation))

curricula_joined |> 
  print()

# A tibble: 10,306 × 7
   author        title                  year  grade curriculum    id description
   <chr>         <chr>                  <chr> <dbl> <chr>      <dbl> <chr>      
 1 Андреев Л.Н.  Жили-были              1919      9 19 ИРЛ 2 …     1 Примерная …
 2 Андреев Л.Н.  Иуда                   1919      9 19 ИРЛ 2 …     1 Примерная …
 3 Андреев Л.Н.  Рассказ о семи повеше… 1919      9 19 ИРЛ 2 …     1 Примерная …
 4 Бальмонт К.Д. <NA>                   1919      9 19 ИРЛ 2 …     1 Примерная …
 5 Брюсов В.Я.   <NA>                   1919      9 19 ИРЛ 2 …     1 Примерная …
 6 Герцен А.И.   Кто виноват?           1919      8 19 ИРЛ 2 …     1 Примерная …
 7 Гоголь Н.В.   Вечера на Хуторе близ… 1919      8 19 ИРЛ 2 …     1 Примерная …
 8 Гоголь Н.В.   Вий                    1919      8 19 ИРЛ 2 …     1 Примерная …
 9 Гоголь Н.В.   Женитьба               1919      8 19 ИРЛ 2 …     1 Примерная …
10 Гоголь Н.В.   Мертвые души           1919      8 19 ИРЛ 2 …     1 Примерная …
# ℹ 10,296 more rows
…
